<?xml version="1.0" encoding="UTF-8" standalone="no"?>
<!-- Created with Inkscape (http://www.inkscape.org/) -->

<svg
   xmlns:dc="http://purl.org/dc/elements/1.1/"
   xmlns:cc="http://creativecommons.org/ns#"
   xmlns:rdf="http://www.w3.org/1999/02/22-rdf-syntax-ns#"
   xmlns:svg="http://www.w3.org/2000/svg"
   xmlns="http://www.w3.org/2000/svg"
   xmlns:xlink="http://www.w3.org/1999/xlink"
   xmlns:sodipodi="http://sodipodi.sourceforge.net/DTD/sodipodi-0.dtd"
   xmlns:inkscape="http://www.inkscape.org/namespaces/inkscape"
   width="128"
   height="128"
   viewBox="0 0 33.86624 33.86624"
   version="1.1"
   id="svg8"
   inkscape:version="0.92.4 5da689c313, 2019-01-14"
   sodipodi:docname="com.raggesilver.Writer.svg"
   inkscape:export-filename="/home/pqueiroz/Projects/writer/data/icons/hicolor/scalable/apps/com.raggesilver.Writer.svg.png"
   inkscape:export-xdpi="191.9976"
   inkscape:export-ydpi="191.9976">
  <defs
     id="defs2">
    <linearGradient
       id="grad"
       inkscape:collect="always">
      <stop
         id="stop4557"
         offset="0"
         style="stop-color:#505050;stop-opacity:1" />
      <stop
         id="stop4559"
         offset="1"
         style="stop-color:#101010;stop-opacity:1" />
    </linearGradient>
    <linearGradient
       inkscape:collect="always"
       xlink:href="#grad"
       id="linearGradient4555"
       gradientUnits="userSpaceOnUse"
       x1="16.914434"
       y1="266.12402"
       x2="17.008928"
       y2="295.93692" />
  </defs>
  <sodipodi:namedview
     id="base"
     pagecolor="#232323"
     bordercolor="#666666"
     borderopacity="1.0"
     inkscape:pageopacity="0"
     inkscape:pageshadow="2"
     inkscape:zoom="11.2"
     inkscape:cx="44.93484"
     inkscape:cy="54.325928"
     inkscape:document-units="px"
     inkscape:current-layer="layer1"
     showgrid="false"
     units="px"
     inkscape:window-width="3840"
     inkscape:window-height="2002"
     inkscape:window-x="0"
     inkscape:window-y="0"
     inkscape:window-maximized="1"
     inkscape:snap-others="true"
     scale-x="0.26458"
     inkscape:showpageshadow="false" />
  <metadata
     id="metadata5">
    <rdf:RDF>
      <cc:Work
         rdf:about="">
        <dc:format>image/svg+xml</dc:format>
        <dc:type
           rdf:resource="http://purl.org/dc/dcmitype/StillImage" />
        <dc:title></dc:title>
      </cc:Work>
    </rdf:RDF>
  </metadata>
  <g
     inkscape:label="Layer 1"
     inkscape:groupmode="layer"
     id="layer1"
     transform="translate(0,-263.1333)">
    <circle
       id="path3718"
       cx="16.933332"
       cy="280.06662"
       style="fill:#ffffff;stroke-width:0.26458332"
       r="16.933332"
       inkscape:export-xdpi="191.9976"
       inkscape:export-ydpi="191.9976" />
    <circle
       style="fill:url(#linearGradient4555);fill-opacity:1;stroke-width:0.26458332"
       id="path3738"
       cx="16.933334"
       cy="280.06662"
       r="14.2875"
       inkscape:export-xdpi="191.9976"
       inkscape:export-ydpi="191.9976" />
    <text
       xml:space="preserve"
       style="font-style:normal;font-variant:normal;font-weight:normal;font-stretch:normal;font-size:21.25102997px;line-height:1.25;font-family:sans-serif;-inkscape-font-specification:sans-serif;letter-spacing:0px;word-spacing:0px;fill:#ffffff;fill-opacity:1;stroke:none;stroke-width:0.22136502"
       x="6.2910218"
       y="289.99518"
       id="text3721"
       transform="scale(1.0077928,0.99226746)"
       inkscape:export-xdpi="191.9976"
       inkscape:export-ydpi="191.9976"><tspan
         sodipodi:role="line"
         id="tspan3719"
         x="6.2910218"
         y="289.99518"
         style="font-style:normal;font-variant:normal;font-weight:normal;font-stretch:normal;font-size:21.25102997px;font-family:sans-serif;-inkscape-font-specification:sans-serif;fill:#ffffff;stroke-width:0.22136502">W</tspan></text>
  </g>
</svg>
